<?xml version="1.0" encoding="UTF-8"?>
<svg width="16px" height="16px" viewBox="0 0 16 16" version="1.1" xmlns="http://www.w3.org/2000/svg" xmlns:xlink="http://www.w3.org/1999/xlink">
    <title>iconOff</title>
    <g id="New-Red" stroke="none" stroke-width="1" fill="none" fill-rule="evenodd">
        <path d="M14.8908866,3.93861012 C15.6053145,5.15080323 15.999,6.54931653 15.999,8.001 C15.999,12.416 12.414,16.001 7.999,16.001 C6.51647385,16.001 5.12753596,15.5967663 3.93649889,14.8926116 L5.41324897,13.415922 C6.1964566,13.7909445 7.073425,14.001 7.999,14.001 C11.311,14.001 13.999,11.313 13.999,8.001 C13.999,7.09187755 13.793055,6.21081445 13.4116724,5.41746359 L14.8908866,3.93861012 Z M15.7071068,0.292893219 C16.0675907,0.65337718 16.0953203,1.22060824 15.7902954,1.61289944 L15.7071068,1.70710678 L1.70710678,15.7071068 C1.31658249,16.0976311 0.683417511,16.0976311 0.292893219,15.7071068 C-0.0675907428,15.3466228 -0.0953202783,14.7793918 0.209704612,14.3871006 L0.292893219,14.2928932 L14.2928932,0.292893219 C14.6834175,-0.0976310729 15.3165825,-0.0976310729 15.7071068,0.292893219 Z M3.49344315,1.6599621 L3.615,1.673 C3.85757143,1.71328571 4.07589796,1.84173469 4.22967638,2.03063848 L4.301,2.13 L4.292,2.153 C4.56,2.58 4.469,3.139 4.079,3.458 C2.769,4.588 1.999,6.242 1.999,8.001 C1.999,8.92685455 2.20913368,9.8039462 2.58424689,10.5871863 L1.10738842,12.0635011 C0.403233658,10.872464 -0.001,9.48352615 -0.001,8.001 C-0.001,5.63 1.048,3.403 2.817,1.881 C2.977,1.75242857 3.17118367,1.67691837 3.37221866,1.66175802 L3.49344315,1.6599621 Z M8,0 C8.51257143,0 8.93546939,0.386285714 8.99326822,0.883431487 L9,1 L9,4.171 L6.999,6.172 L7,1 C7,0.487428571 7.38628571,0.0645306122 7.88343149,0.00673177843 L8,0 Z" id="iconOff" fill="#FFFFFF" fill-rule="nonzero"></path>
    </g>
</svg>