<?xml version="1.0" encoding="UTF-8"?>
<svg width="49px" height="43px" viewBox="0 0 49 43" version="1.1" xmlns="http://www.w3.org/2000/svg" xmlns:xlink="http://www.w3.org/1999/xlink">
    <!-- Generator: Sketch 59.1 (86144) - https://sketch.com -->
    <title>warning</title>
    <desc>Created with Sketch.</desc>
    <g id="Landings" stroke="none" stroke-width="1" fill="none" fill-rule="evenodd">
        <g id="data_corruption_landing" transform="translate(-252.000000, -194.000000)">
            <g id="HeaderContent" transform="translate(252.000000, 181.000000)">
                <g id="warning" transform="translate(0.000000, 13.000000)">
                    <path d="M30.8630981,3.48782018 L47.3853411,32.6447195 C49.1279544,35.7199194 48.0476794,39.6255287 44.9724795,41.368142 C44.0102622,41.9133985 42.9231678,42.2 41.8171991,42.2 L6.82891985,42.2 C3.29429745,42.2 0.428919853,39.3346224 0.428919853,35.8 C0.428919853,34.5875233 0.773339569,33.3999902 1.42207777,32.3756667 L19.888114,3.21876732 C21.7793211,0.232650894 25.733173,-0.654948513 28.7192894,1.23625856 C29.6080914,1.79916649 30.3444183,2.57250294 30.8630981,3.48782018 Z" id="Rectangle" fill="#FFE3BF"></path>
                    <path d="M23.4496,26.2384 L22.912,18.4048 L22.784,15 L26.5728,15 L26.4448,18.4048 L25.9072,26.2384 L23.4496,26.2384 Z M24.6784,32.4592 C24.0298634,32.4592 23.4880022,32.2330689 23.0528,31.7808 C22.6175978,31.3285311 22.4,30.7696033 22.4,30.104 C22.4,29.4213299 22.6175978,28.8538689 23.0528,28.4016 C23.4880022,27.9493311 24.0298634,27.7232 24.6784,27.7232 C25.3269366,27.7232 25.8687978,27.9493311 26.304,28.4016 C26.7392022,28.8538689 26.9568,29.4213299 26.9568,30.104 C26.9568,30.7696033 26.7392022,31.3285311 26.304,31.7808 C25.8687978,32.2330689 25.3269366,32.4592 24.6784,32.4592 Z" id="!" fill="#FF8F00" fill-rule="nonzero"></path>
                </g>
            </g>
        </g>
    </g>
</svg>